MarSol
0 100.0
1 11.0
2 36.19
3 14.795
4 13.465606
5 8.5871522
6 6.088343895699999
7 4.256184017888001
8 2.9327955269027792
9 2.055467136639577
10 1.4232164988329186
11 0.99235112832901
12 0.6895571278928322
13 0.47983457635354243
14 0.3337464333871026
15 0.23214962296846448
16 0.16148963235762098
17 0.112328791411254
18 0.07813745099611871
19 0.054351914500199244
20 0.037807383732932597
21 0.02629879446514891
22 0.0182934609310595
23 0.012724941654262486
24 0.008851474448085955
25 0.006157090885278652
26 0.004282875195428642
27 0.002979170272465575
28 0.0020723123099743355
29 0.0014415014996432085
30 0.0010027091703551552
31 6.97485005532509E-4
32 4.8517092272359034E-4
33 3.3748513891138256E-4
34 2.3475483329341693E-4
35 1.6329558067409777E-4
36 1.135884884673327E-4
37 7.90122099919373E-5
38 5.496093320945769E-5
39 3.823085292194632E-5
40 2.6593400617193002E-5
41 1.849838291167047E-5
42 1.2867484503819095E-5
43 8.950628725060301E-6
44 6.226061865473059E-6
45 4.330851780744948E-6
46 3.012542687825347E-6
47 2.0955262164176617E-6
48 1.4576490953771913E-6
49 1.0139414475501926E-6
50 7.05298183438424E-7
51 4.906057729106806E-7
52 3.41265623625842E-7
53 2.3738454029552908E-7
54 1.6512480622162654E-7
55 1.148608986742986E-7
56 7.989729917720614E-8
57 5.5576601693787585E-8
58 3.8659112230806206E-8
59 2.6891298008980814E-8
60 1.8705600487937926E-8
61 1.301162515463138E-8
62 9.050893034618624E-9
63 6.295805769884913E-9
64 4.379365675907178E-9
65 3.0462889778228543E-9
66 2.119000152797859E-9
67 1.4739775773887392E-9
68 1.0252995478910811E-9
69 7.131988837767829E-10
70 4.961015040596544E-10
71 3.4508845699102496E-10
72 2.4004370511669884E-10
73 1.6697452261537477E-10
74 1.1614756233277606E-10
75 8.079230306841998E-11
76 5.619916685291841E-11
