MarSol
0 100.0 0.0 0.0 0.0 
1 0.0 11.0 0.0 0.0 
2 33.0 0.0 3.19 0.0 
3 10.1123 3.63 0.0 1.0527 
4 11.300552999999999 1.112353 1.0527 0.0 
5 6.674118 1.24306083 0.32258236999999995 0.34739099999999995 
6 4.887251092899999 0.73415298 0.3604876407 0.10645218209999999 
7 3.386721112038 0.5375976202189999 0.21290436419999995 0.118960921431 
8 2.3340944545290894 0.37253932232418 0.15590330986351 0.070258440186 
9 1.6392322509124067 0.2567503899981999 0.10803640347401217 0.05144809225495829 
10 1.132791324986652 0.1803155476003647 0.07445761309947797 0.03565201314642402 
11 0.7908815614535448 0.12460704574853171 0.05229150880410576 0.024571012322827726 
12 0.5491679149605132 0.08699697175988991 0.0361360432670742 0.0172561979053549 
13 0.3822720896193834 0.06040847064565645 0.02522912181036807 0.011924894278134484 
14 0.2658524368443086 0.04204992985813217 0.017518456487240375 0.008325610197421464 
15 0.18493028461594288 0.02924376805287394 0.01219447965885833 0.005781090640789322 
16 0.1286424300271106 0.020342331307753713 0.008480692735333445 0.004024178287423248 
17 0.08948021942636324 0.01415066730298216 0.0058992760792485775 0.002798628602660036 
18 0.0622441722352019 0.009842824136899953 0.004103693517864828 0.0019467611061520305 
19 0.04329641769373066 0.006846858945872206 0.002854418999700987 0.001354218860895393 
20 0.03011723042241796 0.004762605946310372 0.0019855890943029407 9.419582699013255E-4 
21 0.020949498993132958 0.003312895346465974 0.0013811557244300082 6.552444011199704E-4 
22 0.014572495002277839 0.0023044448892446247 9.607396504751329E-4 4.557813890619026E-4 
23 0.010136634101474189 0.0016029744502505617 6.682890178809413E-4 3.170440846567938E-4 
24 0.007051046730450421 0.0011150297511621605 4.6486259057266317E-4 2.205353759007106E-4 
25 0.004904712462203101 7.756151403495459E-4 3.233586278370266E-4 1.5340465488897882E-4 
26 0.0034117200866987146 5.395183708423409E-4 2.2492839070136847E-4 1.0670834718621879E-4 
27 0.0023731943664529864 3.7528920953685846E-4 1.5646032754427895E-4 7.422636893145158E-5 
28 0.001650795150809206 2.610513803098284E-4 1.0883387076568903E-4 5.163190808961205E-5 
29 0.0011482939554116683 1.8158746658901258E-4 7.570490028985028E-5 3.5915177352677375E-5 
30 7.987538528534075E-4 1.2631233509528345E-4 5.2660365310813684E-5 2.4982617095650596E-5 
31 5.556135839884335E-4 8.786292381387478E-5 3.6630577177632226E-5 1.7377920552568516E-5 
32 3.8648509011022033E-4 6.111749423872767E-5 2.5480247906023705E-5 1.2088090468618635E-5 
33 2.6883922386103945E-4 4.2513359912124224E-5 1.7724073329231035E-5 8.408481808987823E-6 
34 1.8700470009554035E-4 2.9572314624714324E-5 1.232887437451603E-5 5.848944198646242E-6 
35 1.3008056387883086E-4 2.0570517010509428E-5 8.575971241167161E-6 4.0685285435902905E-6 
36 9.048410599802843E-5 1.4308862026671388E-5 5.9654499330477365E-6 2.830070509585163E-6 
37 6.294078986651372E-5 9.95325165978312E-6 4.149569987734706E-6 1.968598477905754E-6 
38 4.378164524685163E-5 6.923486885316505E-6 2.8864429813371064E-6 1.3693580959524529E-6 
39 3.045453456420961E-5 4.815980977153677E-6 2.007811196741788E-6 9.525261838412453E-7 
40 2.118418963683059E-5 3.349998802063055E-6 1.396634483374567E-6 6.625776949247901E-7 
41 1.4735733019507213E-5 2.330260860051364E-6 9.714996525982866E-7 4.6088937951360723E-7 
42 1.025018333690097E-5 1.6209306321457928E-6 6.757756494148959E-7 3.205948853574347E-7 
43 7.130032710372E-6 1.127520167059106E-6 4.700698833222802E-7 2.230059643069157E-7 
44 4.959654357388646E-6 7.843035981409195E-7 3.26980848447141E-7 1.5512306149635253E-7 
45 3.4499380779837743E-6 5.455619793127506E-7 2.274480434608668E-7 1.0790367998755655E-7 
46 2.399778670904348E-6 3.794931885782149E-7 1.5821297400069782E-7 7.505785434208608E-8 
47 1.669287256510271E-6 2.6397565379947805E-7 1.100530246876824E-7 5.221028142023028E-8 
48 1.1611570594122778E-6 1.8362159821612967E-7 7.655293960184871E-8 3.63174981469352E-8 
49 8.077014374635545E-7 1.2772727653535046E-7 5.3250263482677653E-8 2.5262470068610078E-8 
50 5.618375281728978E-7 8.884715812099093E-8 3.704091019525167E-8 1.757258694928363E-8 
51 3.908144685921414E-7 6.18021280990187E-8 2.5765675855087393E-8 1.222350036443305E-8 
52 2.718507418998122E-7 4.298959154513552E-8 1.792261714871544E-8 8.502673032178841E-9 
53 1.8909951347938436E-7 2.990358160897932E-8 1.2466981548089314E-8 5.914463659076094E-9 
54 1.3153771716142082E-7 2.0800946482732257E-8 8.67203866660401E-9 4.114103910869473E-9 
55 9.149770254657064E-8 1.446914888775628E-8 6.032274479992362E-9 2.861772759979323E-9 
56 6.364584814123658E-8 1.006474728012276E-8 4.196053177449325E-9 1.990650578397479E-9 
57 4.427208413845769E-8 7.001043295536019E-9 2.918776711235604E-9 1.3846975485582772E-9 
58 3.0795684105162666E-8 4.8699292552303405E-9 2.0303025557054476E-9 9.63196314707749E-10 
59 2.1421493430013328E-8 3.3875252515678898E-9 1.4122794840168006E-9 6.699998433827977E-10 
60 1.490080165795623E-8 2.3563642773014634E-9 9.823823229546892E-10 4.66052229725544E-10 
61 1.0365005165263725E-8 1.639088182375183E-9 6.833456404174253E-10 3.241861665750474E-10 
62 7.209902832213061E-9 1.1401505681790085E-9 4.753355728888036E-10 2.2550406133775029E-10 
63 5.01521205451626E-9 7.930893115434359E-10 3.3064366477191285E-10 1.568607390533052E-10 
64 3.4885840401880626E-9 5.516733259967878E-10 2.2999590034759664E-10 1.0911240937473123E-10 
65 2.426660821748392E-9 3.837442444206866E-10 1.5998526453906868E-10 7.589864711470689E-11 
66 1.687986494225644E-9 2.6693269039232284E-10 1.1128583088199922E-10 5.279513729789266E-11 
67 1.174164258619085E-9 1.8567851436482067E-10 7.741048021377371E-11 3.6724324191059734E-11 
68 8.167492518066385E-10 1.2915806844809921E-10 5.3846769165798055E-11 2.554545847054532E-11 
69 5.681311924033905E-10 8.984241769873014E-11 3.745583984994882E-11 1.7769433824713355E-11 
70 3.951923446121666E-10 6.249443116437289E-11 2.6054301132631776E-11 1.2360427150483107E-11 
71 2.7489599467225E-10 4.3471157907338287E-11 1.8123385037668158E-11 8.597919373768485E-12 
72 1.912177928471927E-10 3.023855941394747E-11 1.260663579312812E-11 5.980717062430492E-12 
73 1.3301119336040652E-10 2.103395721319118E-11 8.769182230044776E-12 4.160189811732278E-12 
74 9.252265333539114E-11 1.4631231269644703E-11 6.099847591825451E-12 2.8938301359147755E-12 
75 6.435880442802759E-11 1.0177491866893014E-11 4.243057068196969E-12 2.0129497053023982E-12 
76 4.47680168919314E-11 7.079468487083026E-12 2.951472641398978E-12 1.4002088325049995E-12 
